Vivado-Project/NeuralNetwork/NeuralNetwork.sim/sim_1/impl/func/xsim/dump.vcd
$date
   Sun Apr  9 21:49:58 2023
$end
$version
  2022.2.2
$end
$timescale
  1ps
$end
$scope module TDNN_TB $end
$var reg 16 ! sig1 [15:0] $end
$var reg 16 " sig2 [15:0] $end
$var reg 1 # topclk $end
$var reg 1 $ WEIGHTBIAS_EN $end
$var wire 16 % out1 [15:0] $end
$var wire 16 & out2 [15:0] $end
$scope module DUT $end
$var wire 16 ' SIG_IN1 [15:0] $end
$var wire 16 ( SIG_IN2 [15:0] $end
$var wire 1 ) CLOCK_N $end
$var wire 1 * wb_en $end
$var wire 16 % SIG_OUT1 [15:0] $end
$var wire 16 & SIG_OUT2 [15:0] $end
$var wire 16 + delay_out_1 [15:0] $end
$var wire 16 , delay_out_2 [15:0] $end
$var wire 16 - delay_out_3 [15:0] $end
$var wire 16 . delay_out_4 [15:0] $end
$var wire 16 / delay_out_5 [15:0] $end
$var wire 16 0 delay_out_6 [15:0] $end
$var wire 16 1 delay_out_7 [15:0] $end
$var wire 16 2 delay_out_8 [15:0] $end
$var wire 16 3 n1_out [15:0] $end
$var wire 16 4 n2_out [15:0] $end
$var wire 16 5 n3_out [15:0] $end
$var wire 16 6 n4_out [15:0] $end
$var wire 16 7 n5_out [15:0] $end
$var wire 16 8 n6_out [15:0] $end
$var wire 16 9 n7_out [15:0] $end
$var wire 16 : n8_out [15:0] $end
$var wire 16 ; n9_out [15:0] $end
$var wire 16 < n10_out [15:0] $end
$var wire 16 = n11_out [15:0] $end
$var wire 16 > n12_out [15:0] $end
$scope module delay1 $end
$var wire 16 ' INPUT [15:0] $end
$var wire 1 ) CLK_N $end
$var reg 16 ? DELAY_OUTPUT [15:0] $end
$var reg 16 @ TEMP_HOLD [15:0] $end
$upscope $end
$scope module delay2 $end
$var wire 16 + INPUT [15:0] $end
$var wire 1 ) CLK_N $end
$var reg 16 A DELAY_OUTPUT [15:0] $end
$var reg 16 B TEMP_HOLD [15:0] $end
$upscope $end
$scope module delay3 $end
$var wire 16 , INPUT [15:0] $end
$var wire 1 ) CLK_N $end
$var reg 16 C DELAY_OUTPUT [15:0] $end
$var reg 16 D TEMP_HOLD [15:0] $end
$upscope $end
$scope module delay4 $end
$var wire 16 - INPUT [15:0] $end
$var wire 1 ) CLK_N $end
$var reg 16 E DELAY_OUTPUT [15:0] $end
$var reg 16 F TEMP_HOLD [15:0] $end
$upscope $end
$scope module delay5 $end
$var wire 16 ( INPUT [15:0] $end
$var wire 1 ) CLK_N $end
$var reg 16 G DELAY_OUTPUT [15:0] $end
$var reg 16 H TEMP_HOLD [15:0] $end
$upscope $end
$scope module delay6 $end
$var wire 16 / INPUT [15:0] $end
$var wire 1 ) CLK_N $end
$var reg 16 I DELAY_OUTPUT [15:0] $end
$var reg 16 J TEMP_HOLD [15:0] $end
$upscope $end
$scope module delay7 $end
$var wire 16 0 INPUT [15:0] $end
$var wire 1 ) CLK_N $end
$var reg 16 K DELAY_OUTPUT [15:0] $end
$var reg 16 L TEMP_HOLD [15:0] $end
$upscope $end
$scope module delay8 $end
$var wire 16 1 INPUT [15:0] $end
$var wire 1 ) CLK_N $end
$var reg 16 M DELAY_OUTPUT [15:0] $end
$var reg 16 N TEMP_HOLD [15:0] $end
$upscope $end
$scope module neuron1 $end
$var wire 1 * WB_EN $end
$var wire 16 O BIAS_IN [15:0] $end
$var wire 1 ) CLOCK_N $end
$var reg 16 P NEURON_OUT [15:0] $end
$var reg 16 Q bias [15:0] $end
$var reg 16 R addition [15:0] $end
$var reg 1 S sigmoid_flag $end
$var integer 32 T i [31:0] $end
$scope module activation $end
$var wire 16 U x [15:0] $end
$var reg 16 P y [15:0] $end
$upscope $end
$upscope $end
$scope module neuron2 $end
$var wire 1 * WB_EN $end
$var wire 16 V BIAS_IN [15:0] $end
$var wire 1 ) CLOCK_N $end
$var reg 16 W NEURON_OUT [15:0] $end
$var reg 16 X bias [15:0] $end
$var reg 16 Y addition [15:0] $end
$var reg 1 Z sigmoid_flag $end
$var integer 32 [ i [31:0] $end
$scope module activation $end
$var wire 16 \ x [15:0] $end
$var reg 16 W y [15:0] $end
$upscope $end
$upscope $end
$scope module neuron3 $end
$var wire 1 * WB_EN $end
$var wire 16 ] BIAS_IN [15:0] $end
$var wire 1 ) CLOCK_N $end
$var reg 16 ^ NEURON_OUT [15:0] $end
$var reg 16 _ bias [15:0] $end
$var reg 16 ` addition [15:0] $end
$var reg 1 a sigmoid_flag $end
$var integer 32 b i [31:0] $end
$scope module activation $end
$var wire 16 c x [15:0] $end
$var reg 16 ^ y [15:0] $end
$upscope $end
$upscope $end
$scope module neuron4 $end
$var wire 1 * WB_EN $end
$var wire 16 d BIAS_IN [15:0] $end
$var wire 1 ) CLOCK_N $end
$var reg 16 e NEURON_OUT [15:0] $end
$var reg 16 f bias [15:0] $end
$var reg 16 g addition [15:0] $end
$var reg 1 h sigmoid_flag $end
$var integer 32 i i [31:0] $end
$scope module activation $end
$var wire 16 j x [15:0] $end
$var reg 16 e y [15:0] $end
$upscope $end
$upscope $end
$scope module neuron5 $end
$var wire 1 * WB_EN $end
$var wire 16 k BIAS_IN [15:0] $end
$var wire 1 ) CLOCK_N $end
$var reg 16 l NEURON_OUT [15:0] $end
$var reg 16 m bias [15:0] $end
$var reg 16 n addition [15:0] $end
$var reg 1 o sigmoid_flag $end
$var integer 32 p i [31:0] $end
$scope module activation $end
$var wire 16 q x [15:0] $end
$var reg 16 l y [15:0] $end
$upscope $end
$upscope $end
$scope module neuron6 $end
$var wire 1 * WB_EN $end
$var wire 16 r BIAS_IN [15:0] $end
$var wire 1 ) CLOCK_N $end
$var reg 16 s NEURON_OUT [15:0] $end
$var reg 16 t bias [15:0] $end
$var reg 16 u addition [15:0] $end
$var reg 1 v sigmoid_flag $end
$var integer 32 w i [31:0] $end
$scope module activation $end
$var wire 16 x x [15:0] $end
$var reg 16 s y [15:0] $end
$upscope $end
$upscope $end
$scope module neuron7 $end
$var wire 1 * WB_EN $end
$var wire 16 y BIAS_IN [15:0] $end
$var wire 1 ) CLOCK_N $end
$var reg 16 z NEURON_OUT [15:0] $end
$var reg 16 { bias [15:0] $end
$var reg 16 | addition [15:0] $end
$var reg 1 } sigmoid_flag $end
$var integer 32 ~ i [31:0] $end
$scope module activation $end
$var wire 16 !! x [15:0] $end
$var reg 16 z y [15:0] $end
$upscope $end
$upscope $end
$scope module neuron8 $end
$var wire 1 * WB_EN $end
$var wire 16 "! BIAS_IN [15:0] $end
$var wire 1 ) CLOCK_N $end
$var reg 16 #! NEURON_OUT [15:0] $end
$var reg 16 $! bias [15:0] $end
$var reg 16 %! addition [15:0] $end
$var reg 1 &! sigmoid_flag $end
$var integer 32 '! i [31:0] $end
$scope module activation $end
$var wire 16 (! x [15:0] $end
$var reg 16 #! y [15:0] $end
$upscope $end
$upscope $end
$scope module neuron9 $end
$var wire 1 * WB_EN $end
$var wire 16 )! BIAS_IN [15:0] $end
$var wire 1 ) CLOCK_N $end
$var reg 16 *! NEURON_OUT [15:0] $end
$var reg 16 +! bias [15:0] $end
$var reg 16 ,! addition [15:0] $end
$var reg 1 -! sigmoid_flag $end
$var integer 32 .! i [31:0] $end
$scope module activation $end
$var wire 16 /! x [15:0] $end
$var reg 16 *! y [15:0] $end
$upscope $end
$upscope $end
$scope module neuron10 $end
$var wire 1 * WB_EN $end
$var wire 16 0! BIAS_IN [15:0] $end
$var wire 1 ) CLOCK_N $end
$var reg 16 1! NEURON_OUT [15:0] $end
$var reg 16 2! bias [15:0] $end
$var reg 16 3! addition [15:0] $end
$var reg 1 4! sigmoid_flag $end
$var integer 32 5! i [31:0] $end
$scope module activation $end
$var wire 16 6! x [15:0] $end
$var reg 16 1! y [15:0] $end
$upscope $end
$upscope $end
$scope module neuron11 $end
$var wire 1 * WB_EN $end
$var wire 16 7! BIAS_IN [15:0] $end
$var wire 1 ) CLOCK_N $end
$var reg 16 8! NEURON_OUT [15:0] $end
$var reg 16 9! bias [15:0] $end
$var reg 16 :! addition [15:0] $end
$var reg 1 ;! sigmoid_flag $end
$var integer 32 <! i [31:0] $end
$scope module activation $end
$var wire 16 =! x [15:0] $end
$var reg 16 8! y [15:0] $end
$upscope $end
$upscope $end
$scope module neuron12 $end
$var wire 1 * WB_EN $end
$var wire 16 >! BIAS_IN [15:0] $end
$var wire 1 ) CLOCK_N $end
$var reg 16 ?! NEURON_OUT [15:0] $end
$var reg 16 @! bias [15:0] $end
$var reg 16 A! addition [15:0] $end
$var reg 1 B! sigmoid_flag $end
$var integer 32 C! i [31:0] $end
$scope module activation $end
$var wire 16 D! x [15:0] $end
$var reg 16 ?! y [15:0] $end
$upscope $end
$upscope $end
$upscope $end
$upscope $end
$enddefinitions $end
#0
$dumpvars
b0 !
b0 !!
b0 "
b1111010100000000 "!
0#
b100000000000000 #!
0$
bx $!
b0 %
b0 %!
b0 &
0&!
b0 '
b1010 '!
b0 (
b0 (!
0)
b1111010001111110 )!
0*
b100000000000000 *!
b0 +
bx +!
b0 ,
b0 ,!
b0 -
0-!
b0 .
b1010 .!
b0 /
b0 /!
b0 0
b1111011110111100 0!
b0 1
b100000000000000 1!
b0 2
bx 2!
b100000000000000 3
b0 3!
b100000000000000 4
04!
b100000000000000 5
b1010 5!
b100000000000000 6
b0 6!
b100000000000000 7
b1111101110000010 7!
b100000000000000 8
b0 8!
b100000000000000 9
bx 9!
b100000000000000 :
b0 :!
b100000000000000 ;
0;!
b100000000000000 <
b1010 <!
bz =
b0 =!
bz >
b1110100011011101 >!
b0 ?
b0 ?!
b0 @
bx @!
b0 A
b0 A!
bx B
0B!
b0 C
b1010 C!
bx D
b0 D!
b0 E
bx F
b0 G
b0 H
b0 I
bx J
b0 K
bx L
b0 M
bx N
b1111111010101000 O
b100000000000000 P
bx Q
b0 R
0S
b1010 T
b0 U
b1111011010010011 V
b100000000000000 W
bx X
b0 Y
0Z
b1010 [
b0 \
b1110110001001101 ]
b100000000000000 ^
bx _
b0 `
0a
b1010 b
b0 c
b1110111000010000 d
b100000000000000 e
bx f
b0 g
0h
b1010 i
b0 j
b1000001111111 k
b100000000000000 l
bx m
b0 n
0o
b1010 p
b0 q
b1110101110110101 r
b100000000000000 s
bx t
b0 u
0v
b1010 w
b0 x
b1111101011011001 y
b100000000000000 z
bx {
b0 |
0}
b1010 ~
$end
#5000
1#
1)
#10000
bx !!
0#
bx #!
1$
b1111010100000000 $!
bx %
bx %!
bx &
b1010 '!
bx (!
0)
1*
bx *!
b1111010001111110 +!
bx ,
bx ,!
bx -
bx .
b1010 .!
bx /!
bx 0
bx 1
bx 1!
bx 2
b1111011110111100 2!
bx 3
bx 3!
bx 4
bx 5
b1010 5!
bx 6
bx 6!
bx 7
bx 8
bx 8!
bx 9
b1111101110000010 9!
bx :
bx :!
bx ;
bx <
b1010 <!
bx =!
b0 ?
bx ?!
b0 @
b1110100011011101 @!
bx A
bx A!
b0 B
bx C
b1010 C!
b0 D
bx D!
bx E
b0 F
b0 G
b0 H
bx I
b0 J
bx K
b0 L
bx M
b0 N
bx P
b1111111010101000 Q
bx R
b1010 T
bx U
bx W
b1111011010010011 X
bx Y
b1010 [
bx \
bx ^
b1110110001001101 _
bx `
b1010 b
bx c
bx e
b1110111000010000 f
bx g
b1010 i
bx j
bx l
b1000001111111 m
bx n
b1010 p
bx q
bx s
b1110101110110101 t
bx u
b1010 w
bx x
bx z
b1111101011011001 {
bx |
b1010 ~
#15000
1#
1)
#20000
bx !!
0#
0$
bx %!
b1010 '!
bx (!
0)
0*
b0 ,
bx ,!
b0 -
b0 .
b1010 .!
bx /!
b0 0
b0 1
b0 2
bx 3!
b1010 5!
bx 6!
bx :!
b1010 <!
bx =!
b0 ?
b0 @
b0 A
bx A!
b0 B
b0 C
b1010 C!
bx D
bx D!
b0 E
bx F
b0 G
b0 H
b0 I
b0 J
b0 K
bx L
b0 M
bx N
bx R
b1010 T
bx U
bx Y
b1010 [
bx \
bx `
b1010 b
bx c
bx g
b1010 i
bx j
bx n
b1010 p
bx q
bx u
b1010 w
bx x
bx |
b1010 ~
#25000
1#
1)
#30000
bx !!
0#
bx %!
b1010 '!
bx (!
0)
bx ,!
bx -
bx .
b1010 .!
bx /!
bx 1
bx 2
bx 3!
b1010 5!
bx 6!
bx :!
b1010 <!
bx =!
b0 ?
b0 @
b0 A
bx A!
b0 B
bx C
b1010 C!
b0 D
bx D!
bx E
b0 F
b0 G
b0 H
b0 I
b0 J
bx K
b0 L
bx M
b0 N
bx R
b1010 T
bx U
bx Y
b1010 [
bx \
bx `
b1010 b
bx c
bx g
b1010 i
bx j
bx n
b1010 p
bx q
bx u
b1010 w
bx x
bx |
b1010 ~
#35000
1#
1)
#40000
b1111101011011001 !!
0#
b11110101000000 #!
b1111010100000000 %!
b1010 '!
b1111010100000000 (!
0)
b11110100100000 *!
b1111010001111110 ,!
b0 -
b0 .
b1010 .!
b1111010001111110 /!
b0 1
b11110111101111 1!
b0 2
b11111110101010 3
b1111011110111100 3!
b11110110100101 4
b11101100010110 5
b1010 5!
b11101110000110 6
b1111011110111100 6!
b100010000011110 7
b11101011110000 8
b11111010110110 9
b11110101000000 :
bx :!
b11110100100000 ;
b11110111101111 <
b1010 <!
bx =!
b0 ?
b0 @
b0 A
bx A!
b0 B
b0 C
b1010 C!
b0 D
bx D!
b0 E
bx F
b0 G
b0 H
b0 I
b0 J
b0 K
b0 L
b0 M
bx N
b11111110101010 P
b1111111010101000 R
b1010 T
b1111111010101000 U
b11110110100101 W
b1111011010010011 Y
b1010 [
b1111011010010011 \
b11101100010110 ^
b1110110001001101 `
b1010 b
b1110110001001101 c
b11101110000110 e
b1110111000010000 g
b1010 i
b1110111000010000 j
b100010000011110 l
b1000001111111 n
b1010 p
b1000001111111 q
b11101011110000 s
b1110101110110101 u
b1010 w
b1110101110110101 x
b11111010110110 z
b1111101011011001 |
b1010 ~
#45000
1#
1)
#50000
bx !!
0#
bx #!
bx %!
b1010 '!
bx (!
0)
bx *!
bx ,!
bx .
b1010 .!
bx /!
bx 1!
bx 2
bx 3
bx 3!
bx 4
bx 5
b1010 5!
bx 6
bx 6!
bx 7
bx 8
bx 9
bx :
bx :!
bx ;
bx <
b1010 <!
bx =!
b0 ?
b0 @
b0 A
bx A!
b0 B
b0 C
b1010 C!
b0 D
bx D!
bx E
b0 F
b0 G
b0 H
b0 I
b0 J
b0 K
b0 L
bx M
b0 N
bx P
bx R
b1010 T
bx U
bx W
bx Y
b1010 [
bx \
bx ^
bx `
b1010 b
bx c
bx e
bx g
b1010 i
bx j
bx l
bx n
b1010 p
bx q
bx s
bx u
b1010 w
bx x
bx z
bx |
b1010 ~
#55000
1#
1)
#60000
b1111101011011001 !!
0#
b11110101000000 #!
b110001001010 %
b1111010100000000 %!
b110001111000111 &
b1010 '!
b1111010100000000 (!
0)
b11110100100000 *!
b1111010001111110 ,!
b0 .
b1010 .!
b1111010001111110 /!
b11110111101111 1!
b0 2
b11111110101010 3
b1111011110111100 3!
b11110110100101 4
b11101100010110 5
b1010 5!
b11101110000110 6
b1111011110111100 6!
b100010000011110 7
b11101011110000 8
b110001001010 8!
b11111010110110 9
b11110101000000 :
b110001001010 :!
b11110100100000 ;
b11110111101111 <
b1010 <!
b110001001010 =!
b0 ?
b110001111000111 ?!
b0 @
b0 A
b110001111000111 A!
b0 B
b0 C
b1010 C!
b0 D
b110001111000111 D!
b0 E
b0 F
b0 G
b0 H
b0 I
b0 J
b0 K
b0 L
b0 M
b0 N
b11111110101010 P
b1111111010101000 R
b1010 T
b1111111010101000 U
b11110110100101 W
b1111011010010011 Y
b1010 [
b1111011010010011 \
b11101100010110 ^
b1110110001001101 `
b1010 b
b1110110001001101 c
b11101110000110 e
b1110111000010000 g
b1010 i
b1110111000010000 j
b100010000011110 l
b1000001111111 n
b1010 p
b1000001111111 q
b11101011110000 s
b1110101110110101 u
b1010 w
b1110101110110101 x
b11111010110110 z
b1111101011011001 |
b1010 ~
#65000
1#
1)
#70000
bx !!
0#
bx #!
bx %
bx %!
bx &
b1010 '!
bx (!
0)
bx *!
bx ,!
b1010 .!
bx /!
bx 1!
bx 3
bx 3!
bx 4
bx 5
b1010 5!
bx 6
bx 6!
bx 7
bx 8
bx 8!
bx 9
bx :
bx :!
bx ;
bx <
b1010 <!
bx =!
b0 ?
bx ?!
b0 @
b0 A
bx A!
b0 B
b0 C
b1010 C!
b0 D
bx D!
b0 E
b0 F
b0 G
b0 H
b0 I
b0 J
b0 K
b0 L
b0 M
b0 N
bx P
bx R
b1010 T
bx U
bx W
bx Y
b1010 [
bx \
bx ^
bx `
b1010 b
bx c
bx e
bx g
b1010 i
bx j
bx l
bx n
b1010 p
bx q
bx s
bx u
b1010 w
bx x
bx z
bx |
b1010 ~
#75000
1#
1)
#80000
b1111101011011001 !!
0#
b11110101000000 #!
b110001001010 %
b1111010100000000 %!
b110001111000111 &
b1010 '!
b1111010100000000 (!
0)
b11110100100000 *!
b1111010001111110 ,!
b1010 .!
b1111010001111110 /!
b11110111101111 1!
b11111110101010 3
b1111011110111100 3!
b11110110100101 4
b11101100010110 5
b1010 5!
b11101110000110 6
b1111011110111100 6!
b100010000011110 7
b11101011110000 8
b110001001010 8!
b11111010110110 9
b11110101000000 :
b110001001010 :!
b11110100100000 ;
b11110111101111 <
b1010 <!
b110001001010 =!
b0 ?
b110001111000111 ?!
b0 @
b0 A
b110001111000111 A!
b0 B
b0 C
b1010 C!
b0 D
b110001111000111 D!
b0 E
b0 F
b0 G
b0 H
b0 I
b0 J
b0 K
b0 L
b0 M
b0 N
b11111110101010 P
b1111111010101000 R
b1010 T
b1111111010101000 U
b11110110100101 W
b1111011010010011 Y
b1010 [
b1111011010010011 \
b11101100010110 ^
b1110110001001101 `
b1010 b
b1110110001001101 c
b11101110000110 e
b1110111000010000 g
b1010 i
b1110111000010000 j
b100010000011110 l
b1000001111111 n
b1010 p
b1000001111111 q
b11101011110000 s
b1110101110110101 u
b1010 w
b1110101110110101 x
b11111010110110 z
b1111101011011001 |
b1010 ~
#85000
1#
1)
#90000
0#
bx %
b1111010100000000 %!
bx &
b1010 '!
0)
b1111010001111110 ,!
b1010 .!
b1111011110111100 3!
b1010 5!
bx 8!
bx :!
b1010 <!
bx =!
b0 ?
bx ?!
b0 @
b0 A
bx A!
b0 B
b0 C
b1010 C!
b0 D
bx D!
b0 E
b0 F
b0 G
b0 H
b0 I
b0 J
b0 K
b0 L
b0 M
b0 N
b1111111010101000 R
b1010 T
b1111011010010011 Y
b1010 [
b1110110001001101 `
b1010 b
b1110111000010000 g
b1010 i
b1000001111111 n
b1010 p
b1110101110110101 u
b1010 w
b1111101011011001 |
b1010 ~
#95000
1#
1)
#100000
0#
b110001001010 %
b1111010100000000 %!
b110001111000111 &
b1010 '!
0)
b1111010001111110 ,!
b1010 .!
b1111011110111100 3!
b1010 5!
b110001001010 8!
b110001001010 :!
b1010 <!
b110001001010 =!
b0 ?
b110001111000111 ?!
b0 @
b0 A
b110001111000111 A!
b0 B
b0 C
b1010 C!
b0 D
b110001111000111 D!
b0 E
b0 F
b0 G
b0 H
b0 I
b0 J
b0 K
b0 L
b0 M
b0 N
b1111111010101000 R
b1010 T
b1111011010010011 Y
b1010 [
b1110110001001101 `
b1010 b
b1110111000010000 g
b1010 i
b1000001111111 n
b1010 p
b1110101110110101 u
b1010 w
b1111101011011001 |
b1010 ~
#105000
1#
1)
#110000
0#
b1111010100000000 %!
b1010 '!
0)
b1111010001111110 ,!
b1010 .!
b1111011110111100 3!
b1010 5!
b110001001010 :!
b1010 <!
b110001001010 =!
b0 ?
b0 @
b0 A
b110001111000111 A!
b0 B
b0 C
b1010 C!
b0 D
b110001111000111 D!
b0 E
b0 F
b0 G
b0 H
b0 I
b0 J
b0 K
b0 L
b0 M
b0 N
b1111111010101000 R
b1010 T
b1111011010010011 Y
b1010 [
b1110110001001101 `
b1010 b
b1110111000010000 g
b1010 i
b1000001111111 n
b1010 p
b1110101110110101 u
b1010 w
b1111101011011001 |
b1010 ~
#115000
1#
1)
#120000
b100000000000000 !
b100000000000000 "
0#
b1111010100000000 %!
b100000000000000 '
b1010 '!
b100000000000000 (
0)
b1111010001111110 ,!
b1010 .!
b1111011110111100 3!
b1010 5!
b110001001010 :!
b1010 <!
b110001001010 =!
b0 ?
b100000000000000 @
b0 A
b110001111000111 A!
b0 B
b0 C
b1010 C!
b0 D
b110001111000111 D!
b0 E
b0 F
b0 G
b100000000000000 H
b0 I
b0 J
b0 K
b0 L
b0 M
b0 N
b1111111010101000 R
b1010 T
b1111011010010011 Y
b1010 [
b1110110001001101 `
b1010 b
b1110111000010000 g
b1010 i
b1000001111111 n
b1010 p
b1110101110110101 u
b1010 w
b1111101011011001 |
b1010 ~
#125000
1#
1)
#130000
b1011101011011001 !!
0#
b1111010100000000 %!
b1010 '!
0)
b100110011110001 *!
b100000000000000 +
b11010001111110 ,!
b1010 .!
b100000000000000 /
b11010001111110 /!
b101101111101101 1!
b111011110111100 3!
b101101110110001 4
b100101011110111 5
b1010 5!
b101100111110000 6
b111011110111100 6!
b11010001000010 7
b101100101110001 8
b10111100011111 9
b110001001010 :!
b100110011110001 ;
b101101111101101 <
b1010 <!
b110001001010 =!
b100000000000000 ?
b100000000000000 @
b0 A
b110001111000111 A!
b0 B
b0 C
b1010 C!
b0 D
b110001111000111 D!
b0 E
b0 F
b100000000000000 G
b100000000000000 H
b0 I
b0 J
b0 K
b0 L
b0 M
b0 N
b1111111010101000 R
b1010 T
b101101110110001 W
b111011010010011 Y
b1010 [
b111011010010011 \
b100101011110111 ^
b10110001001101 `
b1010 b
b10110001001101 c
b101100111110000 e
b110111000010000 g
b1010 i
b110111000010000 j
b11010001000010 l
b1101000001111111 n
b1010 p
b1101000001111111 q
b101100101110001 s
b110101110110101 u
b1010 w
b110101110110101 x
b10111100011111 z
b1011101011011001 |
b1010 ~
#135000
1#
1)
#140000
b1011101011011001 !!
0#
b1111010100000000 %!
b1010 '!
0)
b11010001111110 ,!
b1010 .!
b11010001111110 /!
b111011110111100 3!
b1010 5!
b111011110111100 6!
b110001001010 :!
b1010 <!
b110001001010 =!
b100000000000000 ?
b100000000000000 @
b0 A
b110001111000111 A!
b100000000000000 B
b0 C
b1010 C!
b0 D
b110001111000111 D!
b0 E
b0 F
b100000000000000 G
b100000000000000 H
b0 I
b100000000000000 J
b0 K
b0 L
b0 M
b0 N
b1111111010101000 R
b1010 T
b111011010010011 Y
b1010 [
b111011010010011 \
b10110001001101 `
b1010 b
b10110001001101 c
b110111000010000 g
b1010 i
b110111000010000 j
b1101000001111111 n
b1010 p
b1101000001111111 q
b110101110110101 u
b1010 w
b110101110110101 x
b1011101011011001 |
b1010 ~
#145000
1#
1)
#150000
b1011101011011001 !!
0#
b101000111100101 %
b1111010100000000 %!
b1011001100101000 &
b1010 '!
b1111010100000000 (!
0)
b101101101000100 *!
b100000000000000 ,
b111010001111110 ,!
b1010 .!
b111010001111110 /!
b100000000000000 0
b111011110111100 3!
b11101100010110 5
b1010 5!
b10110000110000 6
b111011110111100 6!
b101001101111100 7
b10101110101000 8
b101000111100101 8!
b101000111100101 :!
b101101101000100 ;
b1010 <!
b101000111100101 =!
b100000000000000 ?
b1011001100101000 ?!
b100000000000000 @
b100000000000000 A
b1011001100101000 A!
b100000000000000 B
b0 C
b1010 C!
b0 D
b1011001100101000 D!
b0 E
b0 F
b100000000000000 G
b100000000000000 H
b100000000000000 I
b100000000000000 J
b0 K
b0 L
b0 M
b0 N
b1111111010101000 R
b1010 T
b1111111010101000 U
b111011010010011 Y
b1010 [
b111011010010011 \
b11101100010110 ^
b1110110001001101 `
b1010 b
b1110110001001101 c
b10110000110000 e
b1010111000010000 g
b1010 i
b1010111000010000 j
b101001101111100 l
b101000001111111 n
b1010 p
b101000001111111 q
b10101110101000 s
b1010101110110101 u
b1010 w
b1010101110110101 x
b1011101011011001 |
b1010 ~
#155000
1#
1)
#160000
b1011101011011001 !!
0#
b1111010100000000 %!
b1010 '!
b1111010100000000 (!
0)
b111010001111110 ,!
b1010 .!
b111010001111110 /!
b111011110111100 3!
b1010 5!
b111011110111100 6!
b101000111100101 :!
b1010 <!
b101000111100101 =!
b100000000000000 ?
b100000000000000 @
b100000000000000 A
b1011001100101000 A!
b100000000000000 B
b0 C
b1010 C!
b100000000000000 D
b1011001100101000 D!
b0 E
b0 F
b100000000000000 G
b100000000000000 H
b100000000000000 I
b100000000000000 J
b0 K
b100000000000000 L
b0 M
b0 N
b1111111010101000 R
b1010 T
b1111111010101000 U
b111011010010011 Y
b1010 [
b111011010010011 \
b1110110001001101 `
b1010 b
b1110110001001101 c
b1010111000010000 g
b1010 i
b1010111000010000 j
b101000001111111 n
b1010 p
b101000001111111 q
b1010101110110101 u
b1010 w
b1010101110110101 x
b1011101011011001 |
b1010 ~
#165000
1#
1)
#170000
b11101011011001 !!
0#
b10110111000101 #!
b111111010101110 %
b1011010100000000 %!
b11001101111 &
b1010 '!
b1011010100000000 (!
0)
b100110011110001 *!
b11010001111110 ,!
b100000000000000 -
b1010 .!
b11010001111110 /!
b100000000000000 1
b11110111101111 1!
b11000000000011 3
b1111011110111100 3!
b11110110100101 4
b100101011110111 5
b1010 5!
b1111011110111100 6!
b101100101110001 8
b111111010101110 8!
b100111001110101 9
b10110111000101 :
b111111010101110 :!
b100110011110001 ;
b11110111101111 <
b1010 <!
b111111010101110 =!
b100000000000000 ?
b11001101111 ?!
b100000000000000 @
b100000000000000 A
b11001101111 A!
b100000000000000 B
b100000000000000 C
b1010 C!
b100000000000000 D
b11001101111 D!
b0 E
b0 F
b100000000000000 G
b100000000000000 H
b100000000000000 I
b100000000000000 J
b100000000000000 K
b100000000000000 L
b0 M
b0 N
b11000000000011 P
b1011111010101000 R
b1010 T
b1011111010101000 U
b11110110100101 W
b1111011010010011 Y
b1010 [
b1111011010010011 \
b100101011110111 ^
b10110001001101 `
b1010 b
b10110001001101 c
b1010111000010000 g
b1010 i
b1010111000010000 j
b101000001111111 n
b1010 p
b101000001111111 q
b101100101110001 s
b110101110110101 u
b1010 w
b110101110110101 x
b100111001110101 z
b11101011011001 |
b1010 ~
#175000
1#
1)
#180000
b11101011011001 !!
0#
b1011010100000000 %!
b1010 '!
b1011010100000000 (!
0)
b11010001111110 ,!
b1010 .!
b11010001111110 /!
b1111011110111100 3!
b1010 5!
b1111011110111100 6!
b111111010101110 :!
b1010 <!
b111111010101110 =!
b100000000000000 ?
b100000000000000 @
b100000000000000 A
b11001101111 A!
b100000000000000 B
b100000000000000 C
b1010 C!
b100000000000000 D
b11001101111 D!
b0 E
b100000000000000 F
b100000000000000 G
b100000000000000 H
b100000000000000 I
b100000000000000 J
b100000000000000 K
b100000000000000 L
b0 M
b100000000000000 N
b1011111010101000 R
b1010 T
b1011111010101000 U
b1111011010010011 Y
b1010 [
b1111011010010011 \
b10110001001101 `
b1010 b
b10110001001101 c
b1010111000010000 g
b1010 i
b1010111000010000 j
b101000001111111 n
b1010 p
b101000001111111 q
b110101110110101 u
b1010 w
b110101110110101 x
b11101011011001 |
b1010 ~
#185000
1#
1)
#190000
b1011101011011001 !!
0#
b100110100010000 #!
b1001111111101100 %
b11010100000000 %!
b10000001011001 &
b1010 '!
b11010100000000 (!
0)
b11010001111110 ,!
b100000000000000 .
b1010 .!
b11010001111110 /!
b10111001100110 1!
b100000000000000 2
b1011011110111100 3!
b10111000100010 4
b11101100010110 5
b1010 5!
b11101110000110 6
b1011011110111100 6!
b100101011010010 8
b1001111111101100 8!
b10111100011111 9
b100110100010000 :
b1001111111101100 :!
b10111001100110 <
b1010 <!
b1001111111101100 =!
b100000000000000 ?
b10000001011001 ?!
b100000000000000 @
b100000000000000 A
b10000001011001 A!
b100000000000000 B
b100000000000000 C
b1010 C!
b100000000000000 D
b10000001011001 D!
b100000000000000 E
b100000000000000 F
b100000000000000 G
b100000000000000 H
b100000000000000 I
b100000000000000 J
b100000000000000 K
b100000000000000 L
b100000000000000 M
b100000000000000 N
b1011111010101000 R
b1010 T
b1011111010101000 U
b10111000100010 W
b1011011010010011 Y
b1010 [
b1011011010010011 \
b11101100010110 ^
b1110110001001101 `
b1010 b
b1110110001001101 c
b11101110000110 e
b1110111000010000 g
b1010 i
b1110111000010000 j
b101000001111111 n
b1010 p
b101000001111111 q
b100101011010010 s
b10101110110101 u
b1010 w
b10101110110101 x
b10111100011111 z
b1011101011011001 |
b1010 ~
#195000
1#
1)
#200000
b1011101011011001 !!
0#
b11010100000000 %!
b1010 '!
b11010100000000 (!
0)
b11010001111110 ,!
b1010 .!
b11010001111110 /!
b1011011110111100 3!
b1010 5!
b1011011110111100 6!
b1001111111101100 :!
b1010 <!
b1001111111101100 =!
b100000000000000 ?
b100000000000000 @
b100000000000000 A
b10000001011001 A!
b100000000000000 B
b100000000000000 C
b1010 C!
b100000000000000 D
b10000001011001 D!
b100000000000000 E
b100000000000000 F
b100000000000000 G
b100000000000000 H
b100000000000000 I
b100000000000000 J
b100000000000000 K
b100000000000000 L
b100000000000000 M
b100000000000000 N
b1011111010101000 R
b1010 T
b1011111010101000 U
b1011011010010011 Y
b1010 [
b1011011010010011 \
b1110110001001101 `
b1010 b
b1110110001001101 c
b1110111000010000 g
b1010 i
b1110111000010000 j
b101000001111111 n
b1010 p
b101000001111111 q
b10101110110101 u
b1010 w
b10101110110101 x
b1011101011011001 |
b1010 ~
#205000
1#
1)
